Convert data objects to a tibble with defaults optimized for spreadsheet presentation — entibble • xlr
…
    @details
Entibble is designed to work with the function xl() to produce a viewable
output of R data within spreadsheets. To help xl() succeed as often as possible, entibble() is
liberal about names, such as duplicate column names, and makes an effort to produce a flat table
in place of a nested tibble::tibble().

    See also

    tibble::tibble()

    Examples

letters |> entibble()
#> # A tibble: 26 × 1
#>    letters
#>    <chr>  
#>  1 a      
#>  2 b      
#>  3 c      
#>  4 d      
#>  5 e      
#>  6 f      
#>  7 g      
#>  8 h      
#>  9 i      
#> 10 j      
#> # ℹ 16 more rows

# naming examples
(example_data <- letters |>  purrr::set_names(LETTERS))
#>   A   B   C   D   E   F   G   H   I   J   K   L   M   N   O   P   Q   R   S   T 
#> "a" "b" "c" "d" "e" "f" "g" "h" "i" "j" "k" "l" "m" "n" "o" "p" "q" "r" "s" "t" 
#>   U   V   W   X   Y   Z 
#> "u" "v" "w" "x" "y" "z" 
example_data |> entibble()
#> # A tibble: 26 × 2
#>    rowname example_data
#>    <chr>   <chr>       
#>  1 A       a           
#>  2 B       b           
#>  3 C       c           
#>  4 D       d           
#>  5 E       e           
#>  6 F       f           
#>  7 G       g           
#>  8 H       h           
#>  9 I       i           
#> 10 J       j           
#> # ℹ 16 more rows
example_data |> entibble(.rowname = 'a user-specified name')
#> # A tibble: 26 × 2
#>    `a user-specified name` example_data
#>    <chr>                   <chr>       
#>  1 A                       a           
#>  2 B                       b           
#>  3 C                       c           
#>  4 D                       d           
#>  5 E                       e           
#>  6 F                       f           
#>  7 G                       g           
#>  8 H                       h           
#>  9 I                       i           
#> 10 J                       j           
#> # ℹ 16 more rows
example_data |> entibble(.name_repair = ~c('name_A', 'name_B'))
#> # A tibble: 26 × 2
#>    name_A name_B
#>    <chr>  <chr> 
#>  1 A      a     
#>  2 B      b     
#>  3 C      c     
#>  4 D      d     
#>  5 E      e     
#>  6 F      f     
#>  7 G      g     
#>  8 H      h     
#>  9 I      i     
#> 10 J      j     
#> # ℹ 16 more rows
entibble(example_data, example_data)
#> # A tibble: 26 × 4
#>    rowname example_data rowname example_data
#>    <chr>   <chr>        <chr>   <chr>       
#>  1 A       a            A       a           
#>  2 B       b            B       b           
#>  3 C       c            C       c           
#>  4 D       d            D       d           
#>  5 E       e            E       e           
#>  6 F       f            F       f           
#>  7 G       g            G       g           
#>  8 H       h            H       h           
#>  9 I       i            I       i           
#> 10 J       j            J       j           
#> # ℹ 16 more rows
entibble(x = 1:3, x = 11:13, .name_repair = 'unique_quiet')
#> # A tibble: 3 × 2
#>   x...1 x...2
#>   <int> <int>
#> 1     1    11
#> 2     2    12
#> 3     3    13
mtcars |> entibble(.rowname = 'vehicle')
#> # A tibble: 32 × 12
#>    vehicle       mpg   cyl  disp    hp  drat    wt  qsec    vs    am  gear  carb
#>    <chr>       <dbl> <dbl> <dbl> <dbl> <dbl> <dbl> <dbl> <dbl> <dbl> <dbl> <dbl>
#>  1 Mazda RX4    21       6  160    110  3.9   2.62  16.5     0     1     4     4
#>  2 Mazda RX4 …  21       6  160    110  3.9   2.88  17.0     0     1     4     4
#>  3 Datsun 710   22.8     4  108     93  3.85  2.32  18.6     1     1     4     1
#>  4 Hornet 4 D…  21.4     6  258    110  3.08  3.22  19.4     1     0     3     1
#>  5 Hornet Spo…  18.7     8  360    175  3.15  3.44  17.0     0     0     3     2
#>  6 Valiant      18.1     6  225    105  2.76  3.46  20.2     1     0     3     1
#>  7 Duster 360   14.3     8  360    245  3.21  3.57  15.8     0     0     3     4
#>  8 Merc 240D    24.4     4  147.    62  3.69  3.19  20       1     0     4     2
#>  9 Merc 230     22.8     4  141.    95  3.92  3.15  22.9     1     0     4     2
#> 10 Merc 280     19.2     6  168.   123  3.92  3.44  18.3     1     0     4     4
#> # ℹ 22 more rows

# nests ragged data
entibble(example_data, !!!letters)
#> # A tibble: 27 × 2
#>    rowname      `list(ragged_elements)`
#>    <chr>        <list>                 
#>  1 example_data <tibble [26 × 2]>      
#>  2 a            <tibble [1 × 1]>       
#>  3 b            <tibble [1 × 1]>       
#>  4 c            <tibble [1 × 1]>       
#>  5 d            <tibble [1 × 1]>       
#>  6 e            <tibble [1 × 1]>       
#>  7 f            <tibble [1 × 1]>       
#>  8 g            <tibble [1 × 1]>       
#>  9 h            <tibble [1 × 1]>       
#> 10 i            <tibble [1 × 1]>       
#> # ℹ 17 more rows
…
